{
  "name": "Laxus",
  "tag": "LSSR",
  "pilot": "Lucas Rosa",
  "mainFile": "src/laxus/laxus.java",
  "supportFiles": [
      "src/laxus/EnemyBot.java",
      "src/laxus/AdvancedEnemyBot.java"
      ]
}
